processador_tb.vcd
$date
  Thu Dec 09 17:54:04 2021
$end
$version
  GHDL v0
$end
$timescale
  1 fs
$end
$scope module standard $end
$upscope $end
$scope module textio $end
$upscope $end
$scope module std_logic_1164 $end
$upscope $end
$scope module numeric_std $end
$upscope $end
$scope module processador_tb $end
$var reg 1 ! finished $end
$var reg 1 " clock $end
$var reg 1 # reset $end
$var reg 16 $ instrucao_atual[15:0] $end
$var reg 16 % ula_saida[15:0] $end
$var reg 16 & pc_saida[15:0] $end
$var reg 16 ' val_reg1[15:0] $end
$var reg 16 ( val_reg2[15:0] $end
$var reg 2 ) estado[1:0] $end
$scope module uut $end
$var reg 16 * instrucao_atual[15:0] $end
$var reg 16 + ula_saida[15:0] $end
$var reg 16 , pc_saida[15:0] $end
$var reg 16 - val_reg1[15:0] $end
$var reg 16 . val_reg2[15:0] $end
$var reg 2 / estado[1:0] $end
$var reg 1 0 clock $end
$var reg 1 1 reset $end
$var reg 16 2 saida_rom[15:0] $end
$var reg 16 3 out_mux1[15:0] $end
$var reg 16 4 out_mux2[15:0] $end
$var reg 16 5 data_reg_1[15:0] $end
$var reg 16 6 data_reg_2[15:0] $end
$var reg 16 7 data_in_banco[15:0] $end
$var reg 16 8 saida_ula[15:0] $end
$var reg 16 9 out_ram[15:0] $end
$var reg 3 : reg_1[2:0] $end
$var reg 3 ; reg_2[2:0] $end
$var reg 3 < reg_dest[2:0] $end
$var reg 2 = op_ula[1:0] $end
$var reg 1 > nop $end
$var reg 1 ? jump $end
$var reg 1 @ pc_enable $end
$var reg 1 A rom_enable $end
$var reg 1 B carga $end
$var reg 1 C transfere $end
$var reg 1 D write_en_banco $end
$var reg 1 E reg_inst_en $end
$var reg 1 F branch $end
$var reg 1 G wr_en_carry $end
$var reg 1 H carry_out $end
$var reg 1 I carry_soma $end
$var reg 1 J carry_subt $end
$var reg 1 K carry_mux $end
$var reg 1 L wr_ram $end
$var reg 1 M re_ram $end
$var reg 16 N instrucao[15:0] $end
$var reg 16 O constante[15:0] $end
$var reg 16 P saida_pc[15:0] $end
$var reg 4 Q opcode_out[3:0] $end
$var reg 7 R endereco_ram[6:0] $end
$var reg 1 S ANONYMOUS_0 $end
$var reg 1 T ANONYMOUS_1 $end
$scope module reg_inst $end
$var reg 1 U clk $end
$var reg 1 V rst $end
$var reg 1 W wr_en $end
$var reg 16 X data_in[15:0] $end
$var reg 16 Y data_out[15:0] $end
$var reg 16 Z registro[15:0] $end
$upscope $end
$scope module mux_reg2_const $end
$var reg 16 [ in_mux_1[15:0] $end
$var reg 16 \ in_mux_2[15:0] $end
$var reg 1 ] sel_mux $end
$var reg 16 ^ out_mux[15:0] $end
$upscope $end
$scope module mux_ula_const $end
$var reg 16 _ in_mux_1[15:0] $end
$var reg 16 ` in_mux_2[15:0] $end
$var reg 1 a sel_mux $end
$var reg 16 b out_mux[15:0] $end
$upscope $end
$scope module ula1 $end
$var reg 16 c in_a[15:0] $end
$var reg 16 d in_b[15:0] $end
$var reg 16 e saida_ula[15:0] $end
$var reg 2 f op_ula[1:0] $end
$var reg 17 g soma[16:0] $end
$var reg 16 h subt[15:0] $end
$var reg 1 i carry_subt $end
$var reg 1 j carry_soma $end
$var reg 32 k mult[31:0] $end
$upscope $end
$scope module banco1 $end
$var reg 3 l reg_1[2:0] $end
$var reg 3 m reg_2[2:0] $end
$var reg 3 n sel_reg[2:0] $end
$var reg 16 o data_in_banco[15:0] $end
$var reg 1 p write_en_banco $end
$var reg 1 q clock $end
$var reg 1 r reset $end
$var reg 16 s data_reg_1[15:0] $end
$var reg 16 t data_reg_2[15:0] $end
$var reg 16 u out_mux[15:0] $end
$var reg 16 v saida[15:0] $end
$var reg 16 w r0[15:0] $end
$var reg 16 x r1[15:0] $end
$var reg 16 y r2[15:0] $end
$var reg 16 z r3[15:0] $end
$var reg 16 { r4[15:0] $end
$var reg 16 | r5[15:0] $end
$var reg 16 } r6[15:0] $end
$var reg 16 !" r7[15:0] $end
$var reg 1 "" w0 $end
$var reg 1 #" w1 $end
$var reg 1 $" w2 $end
$var reg 1 %" w3 $end
$var reg 1 &" w4 $end
$var reg 1 '" w5 $end
$var reg 1 (" w6 $end
$var reg 1 )" w7 $end
$scope module reg0 $end
$var reg 1 *" clk $end
$var reg 1 +" rst $end
$var reg 1 ," wr_en $end
$var reg 16 -" data_in[15:0] $end
$var reg 16 ." data_out[15:0] $end
$var reg 16 /" registro[15:0] $end
$upscope $end
$scope module reg1 $end
$var reg 1 0" clk $end
$var reg 1 1" rst $end
$var reg 1 2" wr_en $end
$var reg 16 3" data_in[15:0] $end
$var reg 16 4" data_out[15:0] $end
$var reg 16 5" registro[15:0] $end
$upscope $end
$scope module reg2 $end
$var reg 1 6" clk $end
$var reg 1 7" rst $end
$var reg 1 8" wr_en $end
$var reg 16 9" data_in[15:0] $end
$var reg 16 :" data_out[15:0] $end
$var reg 16 ;" registro[15:0] $end
$upscope $end
$scope module reg3 $end
$var reg 1 <" clk $end
$var reg 1 =" rst $end
$var reg 1 >" wr_en $end
$var reg 16 ?" data_in[15:0] $end
$var reg 16 @" data_out[15:0] $end
$var reg 16 A" registro[15:0] $end
$upscope $end
$scope module reg4 $end
$var reg 1 B" clk $end
$var reg 1 C" rst $end
$var reg 1 D" wr_en $end
$var reg 16 E" data_in[15:0] $end
$var reg 16 F" data_out[15:0] $end
$var reg 16 G" registro[15:0] $end
$upscope $end
$scope module reg5 $end
$var reg 1 H" clk $end
$var reg 1 I" rst $end
$var reg 1 J" wr_en $end
$var reg 16 K" data_in[15:0] $end
$var reg 16 L" data_out[15:0] $end
$var reg 16 M" registro[15:0] $end
$upscope $end
$scope module reg6 $end
$var reg 1 N" clk $end
$var reg 1 O" rst $end
$var reg 1 P" wr_en $end
$var reg 16 Q" data_in[15:0] $end
$var reg 16 R" data_out[15:0] $end
$var reg 16 S" registro[15:0] $end
$upscope $end
$scope module reg7 $end
$var reg 1 T" clk $end
$var reg 1 U" rst $end
$var reg 1 V" wr_en $end
$var reg 16 W" data_in[15:0] $end
$var reg 16 X" data_out[15:0] $end
$var reg 16 Y" registro[15:0] $end
$upscope $end
$upscope $end
$scope module rom1 $end
$var reg 1 Z" clk $end
$var reg 16 [" endereco[15:0] $end
$var reg 16 \" dado[15:0] $end
$var reg 1 ]" en $end
$upscope $end
$scope module pc1 $end
$var reg 1 ^" wr_en_pc $end
$var reg 1 _" jump $end
$var reg 1 `" branch $end
$var reg 1 a" flag $end
$var reg 1 b" reset_pc $end
$var reg 1 c" clock_pc $end
$var reg 16 d" entrada_pc[15:0] $end
$var reg 16 e" saida_pc[15:0] $end
$var reg 16 f" data_in[15:0] $end
$var reg 16 g" data_out[15:0] $end
$var reg 16 h" out_reg_pc[15:0] $end
$var reg 16 i" out_prox[15:0] $end
$scope module reg_pc1 $end
$var reg 1 j" clk $end
$var reg 1 k" rst $end
$var reg 1 l" wr_en $end
$var reg 16 m" data_in[15:0] $end
$var reg 16 n" data_out[15:0] $end
$var reg 16 o" registro[15:0] $end
$upscope $end
$scope module prox_inst1 $end
$var reg 16 p" entrada[15:0] $end
$var reg 16 q" saida[15:0] $end
$upscope $end
$upscope $end
$scope module uc1 $end
$var reg 16 r" instrucao[15:0] $end
$var reg 1 s" carga $end
$var reg 1 t" transfere $end
$var reg 1 u" nop $end
$var reg 1 v" jump $end
$var reg 1 w" pc_enable $end
$var reg 1 x" ram_escrita $end
$var reg 1 y" ram_leitura $end
$var reg 1 z" rom_enable $end
$var reg 1 {" reg_inst_en $end
$var reg 1 |" branch $end
$var reg 2 }" estado[1:0] $end
$var reg 2 !# op_ula[1:0] $end
$var reg 4 "# opcode_out[3:0] $end
$var reg 1 ## clk $end
$var reg 1 $# rst $end
$var reg 4 %# opcode[3:0] $end
$var reg 2 &# estado_sm[1:0] $end
$scope module sm1 $end
$var reg 1 '# clk $end
$var reg 1 (# rst $end
$var reg 2 )# estado[1:0] $end
$var reg 2 *# estado_s[1:0] $end
$upscope $end
$upscope $end
$scope module ram1 $end
$var reg 1 +# clk $end
$var reg 7 ,# endereco[6:0] $end
$var reg 1 -# wr_en $end
$var reg 16 .# dado_in[15:0] $end
$var reg 16 /# dado_out[15:0] $end
$comment conteudo_ram is not handled $end
$upscope $end
$scope module op_carry $end
$var reg 1 0# clk $end
$var reg 1 1# rst $end
$var reg 1 2# wr_en $end
$var reg 1 3# data_in $end
$var reg 1 4# data_out $end
$var reg 1 5# registro $end
$upscope $end
$upscope $end
$upscope $end
$enddefinitions $end
#0
0!
0"
1#
b0000000000000000 $
b0000000000000000 %
b0000000000000000 &
b0000000000000000 '
b0000000000000000 (
b00 )
b0000000000000000 *
b0000000000000000 +
b0000000000000000 ,
b0000000000000000 -
b0000000000000000 .
b00 /
00
11
bUUUUUUUUUUUUUUUU 2
b0000000000000000 3
b0000000000000000 4
b0000000000000000 5
b0000000000000000 6
bUUUUUUUUUUUUUUUU 7
b0000000000000000 8
bUUUUUUUUUUUUUUUU 9
b000 :
b000 ;
b000 <
b00 =
0>
0?
0@
1A
0B
0C
0D
0E
0F
0G
0H
0I
1J
0K
0L
0M
b0000000000000000 N
b0000000000000000 O
b0000000000000000 P
b0000 Q
b0000000 R
0S
0T
0U
1V
0W
bUUUUUUUUUUUUUUUU X
b0000000000000000 Y
b0000000000000000 Z
b0000000000000000 [
b0000000000000000 \
0]
b0000000000000000 ^
b0000000000000000 _
b0000000000000000 `
0a
b0000000000000000 b
b0000000000000000 c
b0000000000000000 d
b0000000000000000 e
b00 f
b00000000000000000 g
b0000000000000000 h
1i
0j
b00000000000000000000000000000000 k
b000 l
b000 m
b000 n
b0000000000000000 o
0p
0q
1r
b0000000000000000 s
b0000000000000000 t
bUUUUUUUUUUUUUUUU u
bUUUUUUUUUUUUUUUU v
b0000000000000000 w
b0000000000000000 x
b0000000000000000 y
b0000000000000000 z
b0000000000000000 {
b0000000000000000 |
b0000000000000000 }
b0000000000000000 !"
U""
0#"
0$"
0%"
0&"
0'"
0("
0)"
0*"
1+"
1,"
b0000000000000000 -"
b0000000000000000 ."
b0000000000000000 /"
00"
11"
02"
b0000000000000000 3"
b0000000000000000 4"
b0000000000000000 5"
06"
17"
08"
b0000000000000000 9"
b0000000000000000 :"
b0000000000000000 ;"
0<"
1="
0>"
b0000000000000000 ?"
b0000000000000000 @"
b0000000000000000 A"
0B"
1C"
0D"
b0000000000000000 E"
b0000000000000000 F"
b0000000000000000 G"
0H"
1I"
0J"
b0000000000000000 K"
b0000000000000000 L"
b0000000000000000 M"
0N"
1O"
0P"
b0000000000000000 Q"
b0000000000000000 R"
b0000000000000000 S"
0T"
1U"
0V"
b0000000000000000 W"
b0000000000000000 X"
b0000000000000000 Y"
0Z"
b0000000000000000 ["
bUUUUUUUUUUUUUUUU \"
1]"
0^"
0_"
0`"
0a"
1b"
0c"
b0000000000000000 d"
b0000000000000000 e"
b0000000000000001 f"
bUUUUUUUUUUUUUUUU g"
b0000000000000000 h"
b0000000000000001 i"
0j"
1k"
0l"
b0000000000000001 m"
b0000000000000000 n"
b0000000000000000 o"
b0000000000000000 p"
b0000000000000001 q"
b0000000000000000 r"
0s"
0t"
0u"
0v"
0w"
0x"
0y"
1z"
0{"
0|"
b00 }"
b00 !#
b0000 "#
0##
1$#
b0000 %#
b00 &#
0'#
1(#
b00 )#
b00 *#
0+#
b0000000 ,#
0-#
b0000000000000000 .#
bUUUUUUUUUUUUUUUU /#
00#
11#
02#
03#
04#
05#
#50000000
1"
10
b0001001000000001 2
1U
b0001001000000001 X
1q
1*"
10"
16"
1<"
1B"
1H"
1N"
1T"
1Z"
b0001001000000001 \"
1c"
1j"
1##
1'#
1+#
10#
#100000000
0"
0#
00
01
0U
0V
0q
0r
0*"
0+"
00"
01"
06"
07"
0<"
0="
0B"
0C"
0H"
0I"
0N"
0O"
0T"
0U"
0Z"
0b"
0c"
0j"
0k"
0##
0$#
0'#
0(#
0+#
00#
01#
#150000000
1"
b01 )
b01 /
10
0A
1E
1U
1W
1q
1*"
10"
16"
1<"
1B"
1H"
1N"
1T"
1Z"
0]"
1c"
1j"
0z"
1{"
b01 }"
1##
b01 &#
1'#
b01 )#
b01 *#
1+#
10#
#200000000
0"
00
0U
0q
0*"
00"
06"
0<"
0B"
0H"
0N"
0T"
0Z"
0c"
0j"
0##
0'#
0+#
00#
#250000000
1"
b0001001000000001 $
b0000000000000001 %
b10 )
b0001001000000001 *
b0000000000000001 +
b10 /
10
b0000000000000001 3
b0000000000000001 4
b0000000000000001 8
b001 :
b001 <
1@
1B
1D
0E
b0001001000000001 N
b0000000000000001 O
b0001 Q
1S
1T
1U
0W
b0001001000000001 Y
b0001001000000001 Z
b0000000000000001 \
1]
b0000000000000001 ^
b0000000000000001 _
b0000000000000001 `
1a
b0000000000000001 b
b0000000000000001 d
b0000000000000001 e
b00000000000000001 g
b1111111111111111 h
b001 l
b001 n
b0000000000000001 o
1p
1q
1#"
1*"
10"
12"
b0000000000000001 3"
16"
b0000000000000001 9"
1<"
b0000000000000001 ?"
1B"
b0000000000000001 E"
1H"
b0000000000000001 K"
1N"
b0000000000000001 Q"
1T"
b0000000000000001 W"
1Z"
1^"
1c"
b0000000000000001 d"
1j"
1l"
b0001001000000001 r"
1s"
1w"
0{"
b10 }"
b0001 "#
1##
b0001 %#
b10 &#
1'#
b10 )#
b10 *#
1+#
10#
#300000000
0"
00
0U
0q
0*"
00"
06"
0<"
0B"
0H"
0N"
0T"
0Z"
0c"
0j"
0##
0'#
0+#
00#
#350000000
1"
b0000000000000001 %
b0000000000000001 &
b0000000000000001 '
b00 )
b0000000000000001 +
b0000000000000001 ,
b0000000000000001 -
b00 /
10
b0000000000000000 3
b0000000000000001 4
b0000000000000001 5
b0000000000000001 8
0@
1A
0B
0D
0J
b0000000000000000 O
b0000000000000001 P
0S
0T
1U
b0000000000000000 \
0]
b0000000000000000 ^
b0000000000000001 _
b0000000000000000 `
0a
b0000000000000001 b
b0000000000000001 c
b0000000000000000 d
b0000000000000001 e
b00000000000000001 g
b0000000000000001 h
0i
b00000000000000000000000000000000 k
b0000000000000001 o
0p
1q
b0000000000000001 s
b0000000000000001 x
0#"
1*"
10"
02"
b0000000000000001 3"
b0000000000000001 4"
b0000000000000001 5"
16"
b0000000000000001 9"
1<"
b0000000000000001 ?"
1B"
b0000000000000001 E"
1H"
b0000000000000001 K"
1N"
b0000000000000001 Q"
1T"
b0000000000000001 W"
1Z"
b0000000000000001 ["
1]"
0^"
1c"
b0000000000000000 d"
b0000000000000001 e"
b0000000000000010 f"
b0000000000000001 h"
b0000000000000010 i"
1j"
0l"
b0000000000000010 m"
b0000000000000001 n"
b0000000000000001 o"
b0000000000000001 p"
b0000000000000010 q"
0s"
0w"
1z"
b00 }"
1##
b00 &#
1'#
b00 )#
b00 *#
1+#
b0000000000000001 .#
10#
#400000000
0"
00
0U
0q
0*"
00"
06"
0<"
0B"
0H"
0N"
0T"
0Z"
0c"
0j"
0##
0'#
0+#
00#
#450000000
1"
b01 )
b01 /
10
b0001010000000001 2
0A
1E
1U
1W
b0001010000000001 X
1q
1*"
10"
16"
1<"
1B"
1H"
1N"
1T"
1Z"
b0001010000000001 \"
0]"
1c"
1j"
0z"
1{"
b01 }"
1##
b01 &#
1'#
b01 )#
b01 *#
1+#
10#
#500000000
0"
00
0U
0q
0*"
00"
06"
0<"
0B"
0H"
0N"
0T"
0Z"
0c"
0j"
0##
0'#
0+#
00#
#550000000
1"
b0001010000000001 $
b0000000000000001 %
b0000000000000000 '
b10 )
b0001010000000001 *
b0000000000000001 +
b0000000000000000 -
b10 /
10
b0000000000000001 3
b0000000000000000 5
b0000000000000001 8
b010 :
b010 <
1@
1B
1D
0E
1J
b0001010000000001 N
b0000000000000001 O
1S
1T
1U
0W
b0001010000000001 Y
b0001010000000001 Z
b0000000000000001 \
1]
b0000000000000001 ^
b0000000000000001 _
b0000000000000001 `
1a
b0000000000000000 c
b0000000000000001 d
b0000000000000001 e
b00000000000000001 g
b1111111111111111 h
1i
b010 l
b010 n
1p
1q
b0000000000000000 s
1$"
1*"
10"
16"
18"
1<"
1B"
1H"
1N"
1T"
1Z"
1^"
1c"
b0000000000000001 d"
1j"
1l"
b0001010000000001 r"
1s"
1w"
0{"
b10 }"
1##
b10 &#
1'#
b10 )#
b10 *#
1+#
b0000000000000000 .#
10#
#600000000
0"
00
0U
0q
0*"
00"
06"
0<"
0B"
0H"
0N"
0T"
0Z"
0c"
0j"
0##
0'#
0+#
00#
#650000000
1"
b0000000000000001 %
b0000000000000010 &
b0000000000000001 '
b00 )
b0000000000000001 +
b0000000000000010 ,
b0000000000000001 -
b00 /
10
b0000000000000000 3
b0000000000000001 4
b0000000000000001 5
b0000000000000001 8
0@
1A
0B
0D
0J
b0000000000000000 O
b0000000000000010 P
0S
0T
1U
b0000000000000000 \
0]
b0000000000000000 ^
b0000000000000001 _
b0000000000000000 `
0a
b0000000000000001 b
b0000000000000001 c
b0000000000000000 d
b0000000000000001 e
b00000000000000001 g
b0000000000000001 h
0i
b00000000000000000000000000000000 k
b0000000000000001 o
0p
1q
b0000000000000001 s
b0000000000000001 y
0$"
1*"
10"
b0000000000000001 3"
16"
08"
b0000000000000001 9"
b0000000000000001 :"
b0000000000000001 ;"
1<"
b0000000000000001 ?"
1B"
b0000000000000001 E"
1H"
b0000000000000001 K"
1N"
b0000000000000001 Q"
1T"
b0000000000000001 W"
1Z"
b0000000000000010 ["
1]"
0^"
1c"
b0000000000000000 d"
b0000000000000010 e"
b0000000000000011 f"
b0000000000000010 h"
b0000000000000011 i"
1j"
0l"
b0000000000000011 m"
b0000000000000010 n"
b0000000000000010 o"
b0000000000000010 p"
b0000000000000011 q"
0s"
0w"
1z"
b00 }"
1##
b00 &#
1'#
b00 )#
b00 *#
1+#
b0000000000000001 .#
10#
#700000000
0"
00
0U
0q
0*"
00"
06"
0<"
0B"
0H"
0N"
0T"
0Z"
0c"
0j"
0##
0'#
0+#
00#
#750000000
1"
b01 )
b01 /
10
b0001011000100001 2
0A
1E
1U
1W
b0001011000100001 X
1q
1*"
10"
16"
1<"
1B"
1H"
1N"
1T"
1Z"
b0001011000100001 \"
0]"
1c"
1j"
0z"
1{"
b01 }"
1##
b01 &#
1'#
b01 )#
b01 *#
1+#
10#
#800000000
0"
00
0U
0q
0*"
00"
06"
0<"
0B"
0H"
0N"
0T"
0Z"
0c"
0j"
0##
0'#
0+#
00#
#850000000
1"
b0001011000100001 $
b0000000000100001 %
b0000000000000000 '
b10 )
b0001011000100001 *
b0000000000100001 +
b0000000000000000 -
b10 /
10
b0000000000100001 3
b0000000000100001 4
b0000000000000000 5
b0000000000100001 8
b011 :
b011 <
1@
1B
1D
0E
1J
b0001011000100001 N
b0000000000100001 O
1S
1T
1U
0W
b0001011000100001 Y
b0001011000100001 Z
b0000000000100001 \
1]
b0000000000100001 ^
b0000000000100001 _
b0000000000100001 `
1a
b0000000000100001 b
b0000000000000000 c
b0000000000100001 d
b0000000000100001 e
b00000000000100001 g
b1111111111011111 h
1i
b011 l
b011 n
b0000000000100001 o
1p
1q
b0000000000000000 s
1%"
1*"
10"
b0000000000100001 3"
16"
b0000000000100001 9"
1<"
1>"
b0000000000100001 ?"
1B"
b0000000000100001 E"
1H"
b0000000000100001 K"
1N"
b0000000000100001 Q"
1T"
b0000000000100001 W"
1Z"
1^"
1c"
b0000000000100001 d"
1j"
1l"
b0001011000100001 r"
1s"
1w"
0{"
b10 }"
1##
b10 &#
1'#
b10 )#
b10 *#
1+#
b0000000000000000 .#
10#
#900000000
0"
00
0U
0q
0*"
00"
06"
0<"
0B"
0H"
0N"
0T"
0Z"
0c"
0j"
0##
0'#
0+#
00#
#950000000
1"
b0000000000100001 %
b0000000000000011 &
b0000000000100001 '
b00 )
b0000000000100001 +
b0000000000000011 ,
b0000000000100001 -
b00 /
10
b0000000000000000 3
b0000000000100001 4
b0000000000100001 5
b0000000000100001 8
0@
1A
0B
0D
0J
b0000000000000000 O
b0000000000000011 P
0S
0T
1U
b0000000000000000 \
0]
b0000000000000000 ^
b0000000000100001 _
b0000000000000000 `
0a
b0000000000100001 b
b0000000000100001 c
b0000000000000000 d
b0000000000100001 e
b00000000000100001 g
b0000000000100001 h
0i
b00000000000000000000000000000000 k
b0000000000100001 o
0p
1q
b0000000000100001 s
b0000000000100001 z
0%"
1*"
10"
b0000000000100001 3"
16"
b0000000000100001 9"
1<"
0>"
b0000000000100001 ?"
b0000000000100001 @"
b0000000000100001 A"
1B"
b0000000000100001 E"
1H"
b0000000000100001 K"
1N"
b0000000000100001 Q"
1T"
b0000000000100001 W"
1Z"
b0000000000000011 ["
1]"
0^"
1c"
b0000000000000000 d"
b0000000000000011 e"
b0000000000000100 f"
b0000000000000011 h"
b0000000000000100 i"
1j"
0l"
b0000000000000100 m"
b0000000000000011 n"
b0000000000000011 o"
b0000000000000011 p"
b0000000000000100 q"
0s"
0w"
1z"
b00 }"
1##
b00 &#
1'#
b00 )#
b00 *#
1+#
b0000000000100001 .#
10#
#1000000000
0"
00
0U
0q
0*"
00"
06"
0<"
0B"
0H"
0N"
0T"
0Z"
0c"
0j"
0##
0'#
0+#
00#
#1050000000
1"
b01 )
b01 /
10
b1000001001000000 2
0A
1E
1U
1W
b1000001001000000 X
1q
1*"
10"
16"
1<"
1B"
1H"
1N"
1T"
1Z"
b1000001001000000 \"
0]"
1c"
1j"
0z"
1{"
b01 }"
1##
b01 &#
1'#
b01 )#
b01 *#
1+#
10#
#1100000000
0"
00
0U
0q
0*"
00"
06"
0<"
0B"
0H"
0N"
0T"
0Z"
0c"
0j"
0##
0'#
0+#
00#
#1150000000
1"
b1000001001000000 $
b0000000000000010 %
b0000000000000001 '
b0000000000000001 (
b10 )
b1000001001000000 *
b0000000000000010 +
b0000000000000001 -
b0000000000000001 .
b10 /
10
b0000000000000001 3
b0000000000000010 4
b0000000000000001 5
b0000000000000001 6
b0000000000000010 8
b001 :
b001 ;
b001 <
1@
0E
1J
1L
b1000001001000000 N
b1000 Q
b0000001 R
1U
0W
b1000001001000000 Y
b1000001001000000 Z
b0000000000000001 [
b0000000000000001 ^
b0000000000000010 _
b0000000000000010 b
b0000000000000001 c
b0000000000000001 d
b0000000000000010 e
b00000000000000010 g
b0000000000000000 h
1i
b00000000000000000000000000000001 k
b001 l
b001 m
b001 n
b0000000000000010 o
1q
b0000000000000001 s
b0000000000000001 t
1*"
10"
b0000000000000010 3"
16"
b0000000000000010 9"
1<"
b0000000000000010 ?"
1B"
b0000000000000010 E"
1H"
b0000000000000010 K"
1N"
b0000000000000010 Q"
1T"
b0000000000000010 W"
1Z"
1^"
1c"
1j"
1l"
b1000001001000000 r"
1w"
1x"
0{"
b10 }"
b1000 "#
1##
b1000 %#
b10 &#
1'#
b10 )#
b10 *#
1+#
b0000001 ,#
1-#
b0000000000000001 .#
10#
#1200000000
0"
00
0U
0q
0*"
00"
06"
0<"
0B"
0H"
0N"
0T"
0Z"
0c"
0j"
0##
0'#
0+#
00#
#1250000000
1"
b0000000000000100 &
b00 )
b0000000000000100 ,
b00 /
10
b0000000000000001 9
0@
1A
0L
b0000000000000100 P
1U
1q
1*"
10"
16"
1<"
1B"
1H"
1N"
1T"
1Z"
b0000000000000100 ["
1]"
0^"
1c"
b0000000000000100 e"
b0000000000000101 f"
b0000000000000100 h"
b0000000000000101 i"
1j"
0l"
b0000000000000101 m"
b0000000000000100 n"
b0000000000000100 o"
b0000000000000100 p"
b0000000000000101 q"
0w"
0x"
1z"
b00 }"
1##
b00 &#
1'#
b00 )#
b00 *#
1+#
0-#
b0000000000000001 /#
10#
#1300000000
0"
00
0U
0q
0*"
00"
06"
0<"
0B"
0H"
0N"
0T"
0Z"
0c"
0j"
0##
0'#
0+#
00#
#1350000000
1"
b01 )
b01 /
10
b0011001010000000 2
0A
1E
1U
1W
b0011001010000000 X
1q
1*"
10"
16"
1<"
1B"
1H"
1N"
1T"
1Z"
b0011001010000000 \"
0]"
1c"
1j"
0z"
1{"
b01 }"
1##
b01 &#
1'#
b01 )#
b01 *#
1+#
10#
#1400000000
0"
00
0U
0q
0*"
00"
06"
0<"
0B"
0H"
0N"
0T"
0Z"
0c"
0j"
0##
0'#
0+#
00#
#1450000000
1"
b0011001010000000 $
b10 )
b0011001010000000 *
b10 /
10
bUUUUUUUUUUUUUUUU 9
b010 ;
1@
1D
0E
1G
b0011001010000000 N
b0011 Q
b0000000 R
1U
0W
b0011001010000000 Y
b0011001010000000 Z
b010 m
1p
1q
1#"
1*"
10"
12"
16"
1<"
1B"
1H"
1N"
1T"
1Z"
1^"
1c"
1j"
1l"
b0011001010000000 r"
1w"
0{"
b10 }"
b0011 "#
1##
b0011 %#
b10 &#
1'#
b10 )#
b10 *#
1+#
b0000000 ,#
bUUUUUUUUUUUUUUUU /#
10#
12#
#1500000000
0"
00
0U
0q
0*"
00"
06"
0<"
0B"
0H"
0N"
0T"
0Z"
0c"
0j"
0##
0'#
0+#
00#
#1550000000
1"
b0000000000000011 %
b0000000000000101 &
b0000000000000010 '
b00 )
b0000000000000011 +
b0000000000000101 ,
b0000000000000010 -
b00 /
10
b0000000000000011 4
b0000000000000010 5
b0000000000000011 8
0@
1A
0D
0G
0J
b0000000000000101 P
1U
b0000000000000011 _
b0000000000000011 b
b0000000000000010 c
b0000000000000011 e
b00000000000000011 g
b0000000000000001 h
0i
b00000000000000000000000000000010 k
b0000000000000011 o
0p
1q
b0000000000000010 s
b0000000000000010 x
0#"
1*"
10"
02"
b0000000000000011 3"
b0000000000000010 4"
b0000000000000010 5"
16"
b0000000000000011 9"
1<"
b0000000000000011 ?"
1B"
b0000000000000011 E"
1H"
b0000000000000011 K"
1N"
b0000000000000011 Q"
1T"
b0000000000000011 W"
1Z"
b0000000000000101 ["
1]"
0^"
1c"
b0000000000000101 e"
b0000000000000110 f"
b0000000000000101 h"
b0000000000000110 i"
1j"
0l"
b0000000000000110 m"
b0000000000000101 n"
b0000000000000101 o"
b0000000000000101 p"
b0000000000000110 q"
0w"
1z"
b00 }"
1##
b00 &#
1'#
b00 )#
b00 *#
1+#
b0000000000000010 .#
10#
02#
#1600000000
0"
00
0U
0q
0*"
00"
06"
0<"
0B"
0H"
0N"
0T"
0Z"
0c"
0j"
0##
0'#
0+#
00#
#1650000000
1"
b01 )
b01 /
10
b0010111001000000 2
0A
1E
1U
1W
b0010111001000000 X
1q
1*"
10"
16"
1<"
1B"
1H"
1N"
1T"
1Z"
b0010111001000000 \"
0]"
1c"
1j"
0z"
1{"
b01 }"
1##
b01 &#
1'#
b01 )#
b01 *#
1+#
10#
#1700000000
0"
00
0U
0q
0*"
00"
06"
0<"
0B"
0H"
0N"
0T"
0Z"
0c"
0j"
0##
0'#
0+#
00#
#1750000000
1"
b0010111001000000 $
b0000000000000010 %
b0000000000000010 '
b0000000000000010 (
b10 )
b0010111001000000 *
b0000000000000010 +
b0000000000000010 -
b0000000000000010 .
b10 /
10
b0000000000000000 3
b0000000000000010 4
b0000000000000010 5
b0000000000000010 6
b0000000000000010 8
b001 :
b001 ;
b111 <
1@
1C
1D
0E
0G
0J
b0010111001000000 N
b0010 Q
1S
1U
0W
b0010111001000000 Y
b0010111001000000 Z
b0000000000000010 [
1]
b0000000000000000 ^
b0000000000000010 _
b0000000000000010 b
b0000000000000010 c
b0000000000000000 d
b0000000000000010 e
b00000000000000010 g
b0000000000000010 h
0i
b00000000000000000000000000000000 k
b001 l
b001 m
b111 n
b0000000000000010 o
1p
1q
b0000000000000010 s
b0000000000000010 t
1)"
1*"
10"
b0000000000000010 3"
16"
b0000000000000010 9"
1<"
b0000000000000010 ?"
1B"
b0000000000000010 E"
1H"
b0000000000000010 K"
1N"
b0000000000000010 Q"
1T"
1V"
b0000000000000010 W"
1Z"
1^"
1c"
1j"
1l"
b0010111001000000 r"
1t"
1w"
0{"
b10 }"
b0010 "#
1##
b0010 %#
b10 &#
1'#
b10 )#
b10 *#
1+#
b0000000000000010 .#
10#
02#
#1800000000
0"
00
0U
0q
0*"
00"
06"
0<"
0B"
0H"
0N"
0T"
0Z"
0c"
0j"
0##
0'#
0+#
00#
#1850000000
1"
b0000000000000100 %
b0000000000000110 &
b00 )
b0000000000000100 +
b0000000000000110 ,
b00 /
10
b0000000000000010 3
b0000000000000100 4
b0000000000000100 8
b111 :
0@
1A
0C
0D
1J
b0000000000000110 P
0S
1U
0]
b0000000000000010 ^
b0000000000000100 _
b0000000000000100 b
b0000000000000010 d
b0000000000000100 e
b00000000000000100 g
b0000000000000000 h
1i
b00000000000000000000000000000100 k
b111 l
b0000000000000100 o
0p
1q
b0000000000000010 !"
0)"
1*"
10"
b0000000000000100 3"
16"
b0000000000000100 9"
1<"
b0000000000000100 ?"
1B"
b0000000000000100 E"
1H"
b0000000000000100 K"
1N"
b0000000000000100 Q"
1T"
0V"
b0000000000000100 W"
b0000000000000010 X"
b0000000000000010 Y"
1Z"
b0000000000000110 ["
1]"
0^"
1c"
b0000000000000110 e"
b0000000000000111 f"
b0000000000000110 h"
b0000000000000111 i"
1j"
0l"
b0000000000000111 m"
b0000000000000110 n"
b0000000000000110 o"
b0000000000000110 p"
b0000000000000111 q"
0t"
0w"
1z"
b00 }"
1##
b00 &#
1'#
b00 )#
b00 *#
1+#
10#
#1900000000
0"
00
0U
0q
0*"
00"
06"
0<"
0B"
0H"
0N"
0T"
0Z"
0c"
0j"
0##
0'#
0+#
00#
